%YAML 1.1
%TAG !u! tag:unity3d.com,2011:
--- !u!1001 &6250308809779403148
PrefabInstance:
  m_ObjectHideFlags: 0
  serializedVersion: 2
  m_Modification:
    m_TransformParent: {fileID: 0}
    m_Modifications:
    - target: {fileID: 9211281608900008970, guid: 2d872aa88d744864c9d932c4f49fb12a,
        type: 3}
      propertyPath: m_Name
      value: LargeBoxes2OnTop Variant
      objectReference: {fileID: 0}
    - target: {fileID: 8621994457273210093, guid: 2d872aa88d744864c9d932c4f49fb12a,
        type: 3}
      propertyPath: m_LocalPosition.x
      value: 1.369881
      objectReference: {fileID: 0}
    - target: {fileID: 8621994457273210093, guid: 2d872aa88d744864c9d932c4f49fb12a,
        type: 3}
      propertyPath: m_LocalPosition.y
      value: -0.95
      objectReference: {fileID: 0}
    - target: {fileID: 8621994457273210093, guid: 2d872aa88d744864c9d932c4f49fb12a,
        type: 3}
      propertyPath: m_LocalPosition.z
      value: 16.029224
      objectReference: {fileID: 0}
    - target: {fileID: 8621994457273210093, guid: 2d872aa88d744864c9d932c4f49fb12a,
        type: 3}
      propertyPath: m_LocalRotation.x
      value: 0
      objectReference: {fileID: 0}
    - target: {fileID: 8621994457273210093, guid: 2d872aa88d744864c9d932c4f49fb12a,
        type: 3}
      propertyPath: m_LocalRotation.y
      value: 0
      objectReference: {fileID: 0}
    - target: {fileID: 8621994457273210093, guid: 2d872aa88d744864c9d932c4f49fb12a,
        type: 3}
      propertyPath: m_LocalRotation.z
      value: 0
      objectReference: {fileID: 0}
    - target: {fileID: 8621994457273210093, guid: 2d872aa88d744864c9d932c4f49fb12a,
        type: 3}
      propertyPath: m_LocalRotation.w
      value: 1
      objectReference: {fileID: 0}
    - target: {fileID: 8621994457273210093, guid: 2d872aa88d744864c9d932c4f49fb12a,
        type: 3}
      propertyPath: m_RootOrder
      value: 0
      objectReference: {fileID: 0}
    - target: {fileID: 8621994457273210093, guid: 2d872aa88d744864c9d932c4f49fb12a,
        type: 3}
      propertyPath: m_LocalEulerAnglesHint.x
      value: 0
      objectReference: {fileID: 0}
    - target: {fileID: 8621994457273210093, guid: 2d872aa88d744864c9d932c4f49fb12a,
        type: 3}
      propertyPath: m_LocalEulerAnglesHint.y
      value: 0
      objectReference: {fileID: 0}
    - target: {fileID: 8621994457273210093, guid: 2d872aa88d744864c9d932c4f49fb12a,
        type: 3}
      propertyPath: m_LocalEulerAnglesHint.z
      value: 0
      objectReference: {fileID: 0}
    - target: {fileID: 8621994457273210093, guid: 2d872aa88d744864c9d932c4f49fb12a,
        type: 3}
      propertyPath: m_LocalScale.x
      value: 4
      objectReference: {fileID: 0}
    - target: {fileID: 8621994457273210093, guid: 2d872aa88d744864c9d932c4f49fb12a,
        type: 3}
      propertyPath: m_LocalScale.y
      value: 4
      objectReference: {fileID: 0}
    - target: {fileID: 8621994457273210093, guid: 2d872aa88d744864c9d932c4f49fb12a,
        type: 3}
      propertyPath: m_LocalScale.z
      value: 4
      objectReference: {fileID: 0}
    m_RemovedComponents: []
  m_SourcePrefab: {fileID: 100100000, guid: 2d872aa88d744864c9d932c4f49fb12a, type: 3}
