%YAML 1.1
%TAG !u! tag:unity3d.com,2011:
--- !u!1001 &7827848712236796282
PrefabInstance:
  m_ObjectHideFlags: 0
  serializedVersion: 2
  m_Modification:
    m_TransformParent: {fileID: 0}
    m_Modifications:
    - target: {fileID: 6003031061395126999, guid: 4f9f7c893b3422847bd209f21f3e4d83,
        type: 3}
      propertyPath: m_Name
      value: MidBox
      objectReference: {fileID: 0}
    - target: {fileID: 4547463427610802890, guid: 4f9f7c893b3422847bd209f21f3e4d83,
        type: 3}
      propertyPath: m_LocalPosition.x
      value: -0.7278829
      objectReference: {fileID: 0}
    - target: {fileID: 4547463427610802890, guid: 4f9f7c893b3422847bd209f21f3e4d83,
        type: 3}
      propertyPath: m_LocalPosition.y
      value: -0.39999998
      objectReference: {fileID: 0}
    - target: {fileID: 4547463427610802890, guid: 4f9f7c893b3422847bd209f21f3e4d83,
        type: 3}
      propertyPath: m_LocalPosition.z
      value: 21.002556
      objectReference: {fileID: 0}
    - target: {fileID: 4547463427610802890, guid: 4f9f7c893b3422847bd209f21f3e4d83,
        type: 3}
      propertyPath: m_LocalRotation.x
      value: 0
      objectReference: {fileID: 0}
    - target: {fileID: 4547463427610802890, guid: 4f9f7c893b3422847bd209f21f3e4d83,
        type: 3}
      propertyPath: m_LocalRotation.y
      value: 0
      objectReference: {fileID: 0}
    - target: {fileID: 4547463427610802890, guid: 4f9f7c893b3422847bd209f21f3e4d83,
        type: 3}
      propertyPath: m_LocalRotation.z
      value: 0
      objectReference: {fileID: 0}
    - target: {fileID: 4547463427610802890, guid: 4f9f7c893b3422847bd209f21f3e4d83,
        type: 3}
      propertyPath: m_LocalRotation.w
      value: 1
      objectReference: {fileID: 0}
    - target: {fileID: 4547463427610802890, guid: 4f9f7c893b3422847bd209f21f3e4d83,
        type: 3}
      propertyPath: m_RootOrder
      value: 0
      objectReference: {fileID: 0}
    - target: {fileID: 4547463427610802890, guid: 4f9f7c893b3422847bd209f21f3e4d83,
        type: 3}
      propertyPath: m_LocalEulerAnglesHint.x
      value: 0
      objectReference: {fileID: 0}
    - target: {fileID: 4547463427610802890, guid: 4f9f7c893b3422847bd209f21f3e4d83,
        type: 3}
      propertyPath: m_LocalEulerAnglesHint.y
      value: 0
      objectReference: {fileID: 0}
    - target: {fileID: 4547463427610802890, guid: 4f9f7c893b3422847bd209f21f3e4d83,
        type: 3}
      propertyPath: m_LocalEulerAnglesHint.z
      value: 0
      objectReference: {fileID: 0}
    - target: {fileID: 4547463427610802890, guid: 4f9f7c893b3422847bd209f21f3e4d83,
        type: 3}
      propertyPath: m_LocalScale.x
      value: 2.5
      objectReference: {fileID: 0}
    - target: {fileID: 4547463427610802890, guid: 4f9f7c893b3422847bd209f21f3e4d83,
        type: 3}
      propertyPath: m_LocalScale.y
      value: 2.5
      objectReference: {fileID: 0}
    - target: {fileID: 4547463427610802890, guid: 4f9f7c893b3422847bd209f21f3e4d83,
        type: 3}
      propertyPath: m_LocalScale.z
      value: 2.5
      objectReference: {fileID: 0}
    m_RemovedComponents: []
  m_SourcePrefab: {fileID: 100100000, guid: 4f9f7c893b3422847bd209f21f3e4d83, type: 3}
