%YAML 1.1
%TAG !u! tag:unity3d.com,2011:
--- !u!1001 &910019639867510190
PrefabInstance:
  m_ObjectHideFlags: 0
  serializedVersion: 2
  m_Modification:
    m_TransformParent: {fileID: 0}
    m_Modifications:
    - target: {fileID: 8319276454395007396, guid: 20f4a3c086a9a834da18c829cd67dff7,
        type: 3}
      propertyPath: m_Name
      value: MidBoxes2OnTop
      objectReference: {fileID: 0}
    - target: {fileID: 8864896394381924675, guid: 20f4a3c086a9a834da18c829cd67dff7,
        type: 3}
      propertyPath: m_LocalPosition.x
      value: -11.954216
      objectReference: {fileID: 0}
    - target: {fileID: 8864896394381924675, guid: 20f4a3c086a9a834da18c829cd67dff7,
        type: 3}
      propertyPath: m_LocalPosition.y
      value: -0.95
      objectReference: {fileID: 0}
    - target: {fileID: 8864896394381924675, guid: 20f4a3c086a9a834da18c829cd67dff7,
        type: 3}
      propertyPath: m_LocalPosition.z
      value: 9.68661
      objectReference: {fileID: 0}
    - target: {fileID: 8864896394381924675, guid: 20f4a3c086a9a834da18c829cd67dff7,
        type: 3}
      propertyPath: m_LocalRotation.x
      value: 0
      objectReference: {fileID: 0}
    - target: {fileID: 8864896394381924675, guid: 20f4a3c086a9a834da18c829cd67dff7,
        type: 3}
      propertyPath: m_LocalRotation.y
      value: 0
      objectReference: {fileID: 0}
    - target: {fileID: 8864896394381924675, guid: 20f4a3c086a9a834da18c829cd67dff7,
        type: 3}
      propertyPath: m_LocalRotation.z
      value: 0
      objectReference: {fileID: 0}
    - target: {fileID: 8864896394381924675, guid: 20f4a3c086a9a834da18c829cd67dff7,
        type: 3}
      propertyPath: m_LocalRotation.w
      value: 1
      objectReference: {fileID: 0}
    - target: {fileID: 8864896394381924675, guid: 20f4a3c086a9a834da18c829cd67dff7,
        type: 3}
      propertyPath: m_RootOrder
      value: 0
      objectReference: {fileID: 0}
    - target: {fileID: 8864896394381924675, guid: 20f4a3c086a9a834da18c829cd67dff7,
        type: 3}
      propertyPath: m_LocalEulerAnglesHint.x
      value: 0
      objectReference: {fileID: 0}
    - target: {fileID: 8864896394381924675, guid: 20f4a3c086a9a834da18c829cd67dff7,
        type: 3}
      propertyPath: m_LocalEulerAnglesHint.y
      value: 0
      objectReference: {fileID: 0}
    - target: {fileID: 8864896394381924675, guid: 20f4a3c086a9a834da18c829cd67dff7,
        type: 3}
      propertyPath: m_LocalEulerAnglesHint.z
      value: 0
      objectReference: {fileID: 0}
    - target: {fileID: 8864896394381924675, guid: 20f4a3c086a9a834da18c829cd67dff7,
        type: 3}
      propertyPath: m_LocalScale.x
      value: 2.5
      objectReference: {fileID: 0}
    - target: {fileID: 8864896394381924675, guid: 20f4a3c086a9a834da18c829cd67dff7,
        type: 3}
      propertyPath: m_LocalScale.y
      value: 2.5
      objectReference: {fileID: 0}
    - target: {fileID: 8864896394381924675, guid: 20f4a3c086a9a834da18c829cd67dff7,
        type: 3}
      propertyPath: m_LocalScale.z
      value: 2.5
      objectReference: {fileID: 0}
    m_RemovedComponents: []
  m_SourcePrefab: {fileID: 100100000, guid: 20f4a3c086a9a834da18c829cd67dff7, type: 3}
