%YAML 1.1
%TAG !u! tag:unity3d.com,2011:
--- !u!1 &8646806592921461240
GameObject:
  m_ObjectHideFlags: 0
  m_CorrespondingSourceObject: {fileID: 0}
  m_PrefabInstance: {fileID: 0}
  m_PrefabAsset: {fileID: 0}
  serializedVersion: 6
  m_Component:
  - component: {fileID: 8713537222412471799}
  m_Layer: 0
  m_Name: Diamond
  m_TagString: PickUpD
  m_Icon: {fileID: 0}
  m_NavMeshLayer: 0
  m_StaticEditorFlags: 0
  m_IsActive: 1
--- !u!4 &8713537222412471799
Transform:
  m_ObjectHideFlags: 0
  m_CorrespondingSourceObject: {fileID: 0}
  m_PrefabInstance: {fileID: 0}
  m_PrefabAsset: {fileID: 0}
  m_GameObject: {fileID: 8646806592921461240}
  m_LocalRotation: {x: 0, y: 0, z: 0, w: 1}
  m_LocalPosition: {x: 0.00000011920929, y: 14.67, z: 17.6}
  m_LocalScale: {x: 1, y: 1, z: 1}
  m_Children:
  - {fileID: 250076264500884095}
  m_Father: {fileID: 0}
  m_RootOrder: 0
  m_LocalEulerAnglesHint: {x: 0, y: 0, z: 0}
--- !u!1001 &5684754751202752725
PrefabInstance:
  m_ObjectHideFlags: 0
  serializedVersion: 2
  m_Modification:
    m_TransformParent: {fileID: 8713537222412471799}
    m_Modifications:
    - target: {fileID: 5069659953695759643, guid: ee6832a5c1228284396bcfc03acfc2f9,
        type: 3}
      propertyPath: m_Name
      value: Coin
      objectReference: {fileID: 0}
    - target: {fileID: 5069659953695759643, guid: ee6832a5c1228284396bcfc03acfc2f9,
        type: 3}
      propertyPath: m_TagString
      value: PickUpD
      objectReference: {fileID: 0}
    - target: {fileID: 5592412294529387178, guid: ee6832a5c1228284396bcfc03acfc2f9,
        type: 3}
      propertyPath: m_LocalPosition.x
      value: 0.000000059604645
      objectReference: {fileID: 0}
    - target: {fileID: 5592412294529387178, guid: ee6832a5c1228284396bcfc03acfc2f9,
        type: 3}
      propertyPath: m_LocalPosition.y
      value: 14.67
      objectReference: {fileID: 0}
    - target: {fileID: 5592412294529387178, guid: ee6832a5c1228284396bcfc03acfc2f9,
        type: 3}
      propertyPath: m_LocalPosition.z
      value: 17.6
      objectReference: {fileID: 0}
    - target: {fileID: 5592412294529387178, guid: ee6832a5c1228284396bcfc03acfc2f9,
        type: 3}
      propertyPath: m_LocalRotation.x
      value: 0
      objectReference: {fileID: 0}
    - target: {fileID: 5592412294529387178, guid: ee6832a5c1228284396bcfc03acfc2f9,
        type: 3}
      propertyPath: m_LocalRotation.y
      value: 0
      objectReference: {fileID: 0}
    - target: {fileID: 5592412294529387178, guid: ee6832a5c1228284396bcfc03acfc2f9,
        type: 3}
      propertyPath: m_LocalRotation.z
      value: 0
      objectReference: {fileID: 0}
    - target: {fileID: 5592412294529387178, guid: ee6832a5c1228284396bcfc03acfc2f9,
        type: 3}
      propertyPath: m_LocalRotation.w
      value: 1
      objectReference: {fileID: 0}
    - target: {fileID: 5592412294529387178, guid: ee6832a5c1228284396bcfc03acfc2f9,
        type: 3}
      propertyPath: m_RootOrder
      value: 0
      objectReference: {fileID: 0}
    - target: {fileID: 5592412294529387178, guid: ee6832a5c1228284396bcfc03acfc2f9,
        type: 3}
      propertyPath: m_LocalEulerAnglesHint.x
      value: 0
      objectReference: {fileID: 0}
    - target: {fileID: 5592412294529387178, guid: ee6832a5c1228284396bcfc03acfc2f9,
        type: 3}
      propertyPath: m_LocalEulerAnglesHint.y
      value: 0
      objectReference: {fileID: 0}
    - target: {fileID: 5592412294529387178, guid: ee6832a5c1228284396bcfc03acfc2f9,
        type: 3}
      propertyPath: m_LocalEulerAnglesHint.z
      value: 0
      objectReference: {fileID: 0}
    - target: {fileID: 76696106004499150, guid: ee6832a5c1228284396bcfc03acfc2f9,
        type: 3}
      propertyPath: m_TagString
      value: PickUpD
      objectReference: {fileID: 0}
    - target: {fileID: 76696106004499147, guid: ee6832a5c1228284396bcfc03acfc2f9,
        type: 3}
      propertyPath: m_Materials.Array.data[0]
      value: 
      objectReference: {fileID: 2100000, guid: a6063ec2257fe9b449de2dc081ce5a9c, type: 2}
    m_RemovedComponents: []
  m_SourcePrefab: {fileID: 100100000, guid: ee6832a5c1228284396bcfc03acfc2f9, type: 3}
--- !u!4 &250076264500884095 stripped
Transform:
  m_CorrespondingSourceObject: {fileID: 5592412294529387178, guid: ee6832a5c1228284396bcfc03acfc2f9,
    type: 3}
  m_PrefabInstance: {fileID: 5684754751202752725}
  m_PrefabAsset: {fileID: 0}
