%YAML 1.1
%TAG !u! tag:unity3d.com,2011:
--- !u!1 &3380710929739933771
GameObject:
  m_ObjectHideFlags: 0
  m_CorrespondingSourceObject: {fileID: 0}
  m_PrefabInstance: {fileID: 0}
  m_PrefabAsset: {fileID: 0}
  serializedVersion: 6
  m_Component:
  - component: {fileID: 5527854785178060520}
  m_Layer: 0
  m_Name: Captain
  m_TagString: Untagged
  m_Icon: {fileID: 0}
  m_NavMeshLayer: 0
  m_StaticEditorFlags: 0
  m_IsActive: 1
--- !u!4 &5527854785178060520
Transform:
  m_ObjectHideFlags: 0
  m_CorrespondingSourceObject: {fileID: 0}
  m_PrefabInstance: {fileID: 0}
  m_PrefabAsset: {fileID: 0}
  m_GameObject: {fileID: 3380710929739933771}
  m_LocalRotation: {x: 0, y: 0, z: 0, w: 1}
  m_LocalPosition: {x: 0, y: 0, z: 0}
  m_LocalScale: {x: 1, y: 1, z: 1}
  m_Children:
  - {fileID: 1356641628506106908}
  m_Father: {fileID: 0}
  m_RootOrder: 0
  m_LocalEulerAnglesHint: {x: 0, y: 0, z: 0}
--- !u!1001 &4325420225249893577
PrefabInstance:
  m_ObjectHideFlags: 0
  serializedVersion: 2
  m_Modification:
    m_TransformParent: {fileID: 5527854785178060520}
    m_Modifications:
    - target: {fileID: 1769458632774419142, guid: 7b0f1335c15d7c84ea1a903ef119de4b,
        type: 3}
      propertyPath: m_Name
      value: Character_Captain
      objectReference: {fileID: 0}
    - target: {fileID: 3374665723632840917, guid: 7b0f1335c15d7c84ea1a903ef119de4b,
        type: 3}
      propertyPath: m_LocalPosition.x
      value: 0
      objectReference: {fileID: 0}
    - target: {fileID: 3374665723632840917, guid: 7b0f1335c15d7c84ea1a903ef119de4b,
        type: 3}
      propertyPath: m_LocalPosition.y
      value: 0
      objectReference: {fileID: 0}
    - target: {fileID: 3374665723632840917, guid: 7b0f1335c15d7c84ea1a903ef119de4b,
        type: 3}
      propertyPath: m_LocalPosition.z
      value: 0
      objectReference: {fileID: 0}
    - target: {fileID: 3374665723632840917, guid: 7b0f1335c15d7c84ea1a903ef119de4b,
        type: 3}
      propertyPath: m_LocalRotation.x
      value: 0
      objectReference: {fileID: 0}
    - target: {fileID: 3374665723632840917, guid: 7b0f1335c15d7c84ea1a903ef119de4b,
        type: 3}
      propertyPath: m_LocalRotation.y
      value: -0.7071068
      objectReference: {fileID: 0}
    - target: {fileID: 3374665723632840917, guid: 7b0f1335c15d7c84ea1a903ef119de4b,
        type: 3}
      propertyPath: m_LocalRotation.z
      value: 0
      objectReference: {fileID: 0}
    - target: {fileID: 3374665723632840917, guid: 7b0f1335c15d7c84ea1a903ef119de4b,
        type: 3}
      propertyPath: m_LocalRotation.w
      value: 0.7071068
      objectReference: {fileID: 0}
    - target: {fileID: 3374665723632840917, guid: 7b0f1335c15d7c84ea1a903ef119de4b,
        type: 3}
      propertyPath: m_RootOrder
      value: 0
      objectReference: {fileID: 0}
    - target: {fileID: 3374665723632840917, guid: 7b0f1335c15d7c84ea1a903ef119de4b,
        type: 3}
      propertyPath: m_LocalEulerAnglesHint.x
      value: 0
      objectReference: {fileID: 0}
    - target: {fileID: 3374665723632840917, guid: 7b0f1335c15d7c84ea1a903ef119de4b,
        type: 3}
      propertyPath: m_LocalEulerAnglesHint.y
      value: -90
      objectReference: {fileID: 0}
    - target: {fileID: 3374665723632840917, guid: 7b0f1335c15d7c84ea1a903ef119de4b,
        type: 3}
      propertyPath: m_LocalEulerAnglesHint.z
      value: 0
      objectReference: {fileID: 0}
    m_RemovedComponents: []
  m_SourcePrefab: {fileID: 100100000, guid: 7b0f1335c15d7c84ea1a903ef119de4b, type: 3}
--- !u!4 &1356641628506106908 stripped
Transform:
  m_CorrespondingSourceObject: {fileID: 3374665723632840917, guid: 7b0f1335c15d7c84ea1a903ef119de4b,
    type: 3}
  m_PrefabInstance: {fileID: 4325420225249893577}
  m_PrefabAsset: {fileID: 0}
